<svg xmlns="http://www.w3.org/2000/svg" xmlns:xlink="http://www.w3.org/1999/xlink" width="109" height="18"
	role="img" aria-label="mirror: failure">
	<title>mirror: failure</title>
	<linearGradient id="s" x2="0" y2="100%">
		<stop offset="0" stop-color="#fff" stop-opacity=".7" />
		<stop offset=".1" stop-color="#aaa" stop-opacity=".1" />
		<stop offset=".9" stop-color="#000" stop-opacity=".3" />
		<stop offset="1" stop-color="#000" stop-opacity=".5" />
	</linearGradient>
	<clipPath id="r">
		<rect width="109" height="18" rx="4" fill="#fff" />
	</clipPath>
	<g clip-path="url(#r)">
		<rect width="51" height="18" fill="#555" />
		<rect x="51" width="58" height="18" fill="#e05d44" />
		<rect width="109" height="18" fill="url(#s)" />
	</g>
	<g fill="#fff" text-anchor="middle" font-family="Geneva,DejaVu Sans,sans-serif" text-rendering="geometricPrecision"
		font-size="110"><text aria-hidden="true" x="265" y="140" fill="#010101" fill-opacity=".3"
			transform="scale(.1)" textLength="399">mirror</text><text x="265" y="130"
			transform="scale(.1)" fill="#fff" textLength="399">mirror</text><text aria-hidden="true"
			x="790" y="140" fill="#010101" fill-opacity=".3" transform="scale(.1)"
			textLength="465">failure</text><text x="790" y="130" transform="scale(.1)"
			fill="#fff" textLength="465">failure</text></g>
</svg>
